ISSS608-VAA - Take-Home_Ex04
…
imported_countries <- read_excel("data/Merchandise Trade by RegionMarket.xlsx", 
                          sheet = "T1",
                          range = cell_rows(10:101))%>%
  select(`Data Series`, contains(c("2020", "2021", "2022"))) %>%
  slice(-1:-7)

imported_countries

# A tibble: 84 × 37
   `Data Series` 2020 …¹ 2020 …² 2020 …³ 2020 …⁴ 2020 …⁵ 2020 …⁶ 2020 …⁷ 2020 …⁸
   <chr>           <dbl>   <dbl>   <dbl>   <dbl>   <dbl>   <dbl>   <dbl>   <dbl>
 1 Belgium (Tho…  133445  209539   83657   80823   99286  102317   73457   77945
 2 Denmark (Tho…  143209   45010   43480   70494   44398   95598   41203   65305
 3 France (Thou… 1141603 1498854 1922407 1167166  922015 1088034  895505  690063
 4 Germany, Fed…  980296  978208  980882  972416  931876 1061128  978806  892172
 5 Greece (Thou…   10429   10423   11378   11241   11809   11655   11839   11181
 6 Ireland (Tho…  250720  252154  187158  112631   94134  104004  111688   93891
 7 Italy (Thous…  613730  476816  487904  409767  461599  382371  442728  295412
 8 Luxembourg (…   11891    3758   14577    3471    3479   29389   23619    3436
 9 Netherlands …  257892  296798  303736  373881  286459  252322  273072  255200
10 United Kingd…  755324  635420  802840  762179  863043  830637  739542 1104023
# … with 74 more rows, 28 more variables: `2020 Apr` <dbl>, `2020 Mar` <dbl>,
#   `2020 Feb` <dbl>, `2020 Jan` <dbl>, `2021 Dec` <dbl>, `2021 Nov` <dbl>,
#   `2021 Oct` <dbl>, `2021 Sep` <dbl>, `2021 Aug` <dbl>, `2021 Jul` <dbl>,
#   `2021 Jun` <dbl>, `2021 May` <dbl>, `2021 Apr` <dbl>, `2021 Mar` <dbl>,
#   `2021 Feb` <dbl>, `2021 Jan` <dbl>, `2022 Dec` <dbl>, `2022 Nov` <dbl>,
#   `2022 Oct` <dbl>, `2022 Sep` <dbl>, `2022 Aug` <dbl>, `2022 Jul` <dbl>,
#   `2022 Jun` <dbl>, `2022 May` <dbl>, `2022 Apr` <dbl>, `2022 Mar` <dbl>, …
…
